[
    {
        "id": "dummyTable",
        "title": "Dummy Table",
        "order": 1,
        "path": "tabs/dummyTable"
    },
    {
        "id": "dummyChart",
        "title": "Dummy Chart",
        "order": 2,
        "path": "tabs/dummyChart"
    },
    {
        "id": "dummyList",
        "title": "Dummy List",
        "order": 0,
        "path": "tabs/dummyList"
    }
]
